('C:\\code\\python\\ur4\\dist\\main.exe',
 False,
 False,
 False,
 'icon.ico',
 None,
 False,
 False,
 '<?xml version="1.0" encoding="UTF-8" standalone="yes"?><assembly xmlns="urn:schemas-microsoft-com:asm.v1" manifestVersion="1.0"><assemblyIdentity type="win32" name="main" processorArchitecture="x86" version="1.0.0.0"/><trustInfo xmlns="urn:schemas-microsoft-com:asm.v3"><security><requestedPrivileges><requestedExecutionLevel level="asInvoker" uiAccess="false"/></requestedPrivileges></security></trustInfo><dependency><dependentAssembly><assemblyIdentity type="win32" name="Microsoft.Windows.Common-Controls" language="*" processorArchitecture="*" version="6.0.0.0" publicKeyToken="6595b64144ccf1df"/></dependentAssembly></dependency><compatibility xmlns="urn:schemas-microsoft-com:compatibility.v1"><application><supportedOS Id="{e2011457-1546-43c5-a5fe-008deee3d3f0}"/><supportedOS Id="{35138b9a-5d96-4fbd-8e2d-a2440225f93a}"/><supportedOS Id="{4a2f28e3-53b9-4441-ba9c-d69d4a4a6e38}"/><supportedOS Id="{1f676c76-80e1-4239-95bb-83d0f6d0da78}"/><supportedOS Id="{8e0f7a12-bfb3-4fe8-b9a5-48fd50a15a9a}"/></application></compatibility><application xmlns="urn:schemas-microsoft-com:asm.v3"><windowsSettings><longPathAware xmlns="http://schemas.microsoft.com/SMI/2016/WindowsSettings">true</longPathAware></windowsSettings></application></assembly>',
 True,
 True,
 None,
 None,
 None,
 'C:\\code\\python\\ur4\\build\\main\\main.pkg',
 [('PYZ-00.pyz', 'C:\\code\\python\\ur4\\build\\main\\PYZ-00.pyz', 'PYZ'),
  ('struct',
   'C:\\Users\\Admin\\AppData\\Local\\Programs\\Python\\Python310-32\\lib\\struct.pyo',
   'PYMODULE'),
  ('pyimod01_os_path',
   'C:\\Users\\Admin\\AppData\\Local\\Programs\\Python\\Python310-32\\lib\\site-packages\\PyInstaller\\loader\\pyimod01_os_path.pyc',
   'PYMODULE'),
  ('pyimod02_archive',
   'C:\\Users\\Admin\\AppData\\Local\\Programs\\Python\\Python310-32\\lib\\site-packages\\PyInstaller\\loader\\pyimod02_archive.pyc',
   'PYMODULE'),
  ('pyimod03_importers',
   'C:\\Users\\Admin\\AppData\\Local\\Programs\\Python\\Python310-32\\lib\\site-packages\\PyInstaller\\loader\\pyimod03_importers.pyc',
   'PYMODULE'),
  ('pyimod04_ctypes',
   'C:\\Users\\Admin\\AppData\\Local\\Programs\\Python\\Python310-32\\lib\\site-packages\\PyInstaller\\loader\\pyimod04_ctypes.pyc',
   'PYMODULE'),
  ('pyiboot01_bootstrap',
   'C:\\Users\\Admin\\AppData\\Local\\Programs\\Python\\Python310-32\\lib\\site-packages\\PyInstaller\\loader\\pyiboot01_bootstrap.py',
   'PYSOURCE'),
  ('pyi_rth_inspect',
   'C:\\Users\\Admin\\AppData\\Local\\Programs\\Python\\Python310-32\\Lib\\site-packages\\PyInstaller\\hooks\\rthooks\\pyi_rth_inspect.py',
   'PYSOURCE'),
  ('pyi_rth_subprocess',
   'C:\\Users\\Admin\\AppData\\Local\\Programs\\Python\\Python310-32\\Lib\\site-packages\\PyInstaller\\hooks\\rthooks\\pyi_rth_subprocess.py',
   'PYSOURCE'),
  ('pyi_rth_pkgutil',
   'C:\\Users\\Admin\\AppData\\Local\\Programs\\Python\\Python310-32\\Lib\\site-packages\\PyInstaller\\hooks\\rthooks\\pyi_rth_pkgutil.py',
   'PYSOURCE'),
  ('pyi_rth_multiprocessing',
   'C:\\Users\\Admin\\AppData\\Local\\Programs\\Python\\Python310-32\\Lib\\site-packages\\PyInstaller\\hooks\\rthooks\\pyi_rth_multiprocessing.py',
   'PYSOURCE'),
  ('pyi_rth_pyqt5',
   'C:\\Users\\Admin\\AppData\\Local\\Programs\\Python\\Python310-32\\Lib\\site-packages\\PyInstaller\\hooks\\rthooks\\pyi_rth_pyqt5.py',
   'PYSOURCE'),
  ('main', 'C:\\code\\python\\ur4\\main.py', 'PYSOURCE'),
  ('VCRUNTIME140.dll',
   'C:\\Users\\Admin\\AppData\\Local\\Programs\\Python\\Python310-32\\VCRUNTIME140.dll',
   'BINARY'),
  ('python310.dll',
   'C:\\Users\\Admin\\AppData\\Local\\Programs\\Python\\Python310-32\\python310.dll',
   'BINARY'),
  ('PyQt5\\Qt5\\plugins\\platformthemes\\qxdgdesktopportal.dll',
   'C:\\Users\\Admin\\AppData\\Local\\Programs\\Python\\Python310-32\\lib\\site-packages\\PyQt5\\Qt5\\plugins\\platformthemes\\qxdgdesktopportal.dll',
   'BINARY'),
  ('PyQt5\\Qt5\\plugins\\imageformats\\qwbmp.dll',
   'C:\\Users\\Admin\\AppData\\Local\\Programs\\Python\\Python310-32\\lib\\site-packages\\PyQt5\\Qt5\\plugins\\imageformats\\qwbmp.dll',
   'BINARY'),
  ('PyQt5\\Qt5\\plugins\\imageformats\\qicns.dll',
   'C:\\Users\\Admin\\AppData\\Local\\Programs\\Python\\Python310-32\\lib\\site-packages\\PyQt5\\Qt5\\plugins\\imageformats\\qicns.dll',
   'BINARY'),
  ('PyQt5\\Qt5\\plugins\\imageformats\\qico.dll',
   'C:\\Users\\Admin\\AppData\\Local\\Programs\\Python\\Python310-32\\lib\\site-packages\\PyQt5\\Qt5\\plugins\\imageformats\\qico.dll',
   'BINARY'),
  ('PyQt5\\Qt5\\plugins\\styles\\qwindowsvistastyle.dll',
   'C:\\Users\\Admin\\AppData\\Local\\Programs\\Python\\Python310-32\\lib\\site-packages\\PyQt5\\Qt5\\plugins\\styles\\qwindowsvistastyle.dll',
   'BINARY'),
  ('PyQt5\\Qt5\\plugins\\imageformats\\qgif.dll',
   'C:\\Users\\Admin\\AppData\\Local\\Programs\\Python\\Python310-32\\lib\\site-packages\\PyQt5\\Qt5\\plugins\\imageformats\\qgif.dll',
   'BINARY'),
  ('d3dcompiler_47.dll',
   'C:\\Users\\Admin\\AppData\\Local\\Programs\\Python\\Python310-32\\lib\\site-packages\\PyQt5\\Qt5\\bin\\d3dcompiler_47.dll',
   'BINARY'),
  ('PyQt5\\Qt5\\plugins\\platforms\\qoffscreen.dll',
   'C:\\Users\\Admin\\AppData\\Local\\Programs\\Python\\Python310-32\\lib\\site-packages\\PyQt5\\Qt5\\plugins\\platforms\\qoffscreen.dll',
   'BINARY'),
  ('libGLESv2.dll',
   'C:\\Users\\Admin\\AppData\\Local\\Programs\\Python\\Python310-32\\lib\\site-packages\\PyQt5\\Qt5\\bin\\libGLESv2.dll',
   'BINARY'),
  ('PyQt5\\Qt5\\plugins\\platforms\\qminimal.dll',
   'C:\\Users\\Admin\\AppData\\Local\\Programs\\Python\\Python310-32\\lib\\site-packages\\PyQt5\\Qt5\\plugins\\platforms\\qminimal.dll',
   'BINARY'),
  ('libEGL.dll',
   'C:\\Users\\Admin\\AppData\\Local\\Programs\\Python\\Python310-32\\lib\\site-packages\\PyQt5\\Qt5\\bin\\libEGL.dll',
   'BINARY'),
  ('PyQt5\\Qt5\\plugins\\imageformats\\qjpeg.dll',
   'C:\\Users\\Admin\\AppData\\Local\\Programs\\Python\\Python310-32\\lib\\site-packages\\PyQt5\\Qt5\\plugins\\imageformats\\qjpeg.dll',
   'BINARY'),
  ('PyQt5\\Qt5\\plugins\\imageformats\\qsvg.dll',
   'C:\\Users\\Admin\\AppData\\Local\\Programs\\Python\\Python310-32\\lib\\site-packages\\PyQt5\\Qt5\\plugins\\imageformats\\qsvg.dll',
   'BINARY'),
  ('PyQt5\\Qt5\\plugins\\iconengines\\qsvgicon.dll',
   'C:\\Users\\Admin\\AppData\\Local\\Programs\\Python\\Python310-32\\lib\\site-packages\\PyQt5\\Qt5\\plugins\\iconengines\\qsvgicon.dll',
   'BINARY'),
  ('PyQt5\\Qt5\\plugins\\platforms\\qwebgl.dll',
   'C:\\Users\\Admin\\AppData\\Local\\Programs\\Python\\Python310-32\\lib\\site-packages\\PyQt5\\Qt5\\plugins\\platforms\\qwebgl.dll',
   'BINARY'),
  ('PyQt5\\Qt5\\plugins\\imageformats\\qtga.dll',
   'C:\\Users\\Admin\\AppData\\Local\\Programs\\Python\\Python310-32\\lib\\site-packages\\PyQt5\\Qt5\\plugins\\imageformats\\qtga.dll',
   'BINARY'),
  ('PyQt5\\Qt5\\plugins\\imageformats\\qwebp.dll',
   'C:\\Users\\Admin\\AppData\\Local\\Programs\\Python\\Python310-32\\lib\\site-packages\\PyQt5\\Qt5\\plugins\\imageformats\\qwebp.dll',
   'BINARY'),
  ('PyQt5\\Qt5\\plugins\\platforms\\qwindows.dll',
   'C:\\Users\\Admin\\AppData\\Local\\Programs\\Python\\Python310-32\\lib\\site-packages\\PyQt5\\Qt5\\plugins\\platforms\\qwindows.dll',
   'BINARY'),
  ('PyQt5\\Qt5\\plugins\\imageformats\\qtiff.dll',
   'C:\\Users\\Admin\\AppData\\Local\\Programs\\Python\\Python310-32\\lib\\site-packages\\PyQt5\\Qt5\\plugins\\imageformats\\qtiff.dll',
   'BINARY'),
  ('opengl32sw.dll',
   'C:\\Users\\Admin\\AppData\\Local\\Programs\\Python\\Python310-32\\lib\\site-packages\\PyQt5\\Qt5\\bin\\opengl32sw.dll',
   'BINARY'),
  ('select',
   'C:\\Users\\Admin\\AppData\\Local\\Programs\\Python\\Python310-32\\DLLs\\select.pyd',
   'EXTENSION'),
  ('_decimal',
   'C:\\Users\\Admin\\AppData\\Local\\Programs\\Python\\Python310-32\\DLLs\\_decimal.pyd',
   'EXTENSION'),
  ('_socket',
   'C:\\Users\\Admin\\AppData\\Local\\Programs\\Python\\Python310-32\\DLLs\\_socket.pyd',
   'EXTENSION'),
  ('_overlapped',
   'C:\\Users\\Admin\\AppData\\Local\\Programs\\Python\\Python310-32\\DLLs\\_overlapped.pyd',
   'EXTENSION'),
  ('_ssl',
   'C:\\Users\\Admin\\AppData\\Local\\Programs\\Python\\Python310-32\\DLLs\\_ssl.pyd',
   'EXTENSION'),
  ('_asyncio',
   'C:\\Users\\Admin\\AppData\\Local\\Programs\\Python\\Python310-32\\DLLs\\_asyncio.pyd',
   'EXTENSION'),
  ('_queue',
   'C:\\Users\\Admin\\AppData\\Local\\Programs\\Python\\Python310-32\\DLLs\\_queue.pyd',
   'EXTENSION'),
  ('_ctypes',
   'C:\\Users\\Admin\\AppData\\Local\\Programs\\Python\\Python310-32\\DLLs\\_ctypes.pyd',
   'EXTENSION'),
  ('_multiprocessing',
   'C:\\Users\\Admin\\AppData\\Local\\Programs\\Python\\Python310-32\\DLLs\\_multiprocessing.pyd',
   'EXTENSION'),
  ('pyexpat',
   'C:\\Users\\Admin\\AppData\\Local\\Programs\\Python\\Python310-32\\DLLs\\pyexpat.pyd',
   'EXTENSION'),
  ('unicodedata',
   'C:\\Users\\Admin\\AppData\\Local\\Programs\\Python\\Python310-32\\DLLs\\unicodedata.pyd',
   'EXTENSION'),
  ('_hashlib',
   'C:\\Users\\Admin\\AppData\\Local\\Programs\\Python\\Python310-32\\DLLs\\_hashlib.pyd',
   'EXTENSION'),
  ('_lzma',
   'C:\\Users\\Admin\\AppData\\Local\\Programs\\Python\\Python310-32\\DLLs\\_lzma.pyd',
   'EXTENSION'),
  ('_bz2',
   'C:\\Users\\Admin\\AppData\\Local\\Programs\\Python\\Python310-32\\DLLs\\_bz2.pyd',
   'EXTENSION'),
  ('PyQt5.QtGui',
   'C:\\Users\\Admin\\AppData\\Local\\Programs\\Python\\Python310-32\\lib\\site-packages\\PyQt5\\QtGui.pyd',
   'EXTENSION'),
  ('PyQt5.QtCore',
   'C:\\Users\\Admin\\AppData\\Local\\Programs\\Python\\Python310-32\\lib\\site-packages\\PyQt5\\QtCore.pyd',
   'EXTENSION'),
  ('_sqlite3',
   'C:\\Users\\Admin\\AppData\\Local\\Programs\\Python\\Python310-32\\DLLs\\_sqlite3.pyd',
   'EXTENSION'),
  ('_uuid',
   'C:\\Users\\Admin\\AppData\\Local\\Programs\\Python\\Python310-32\\DLLs\\_uuid.pyd',
   'EXTENSION'),
  ('PyQt5.QtWidgets',
   'C:\\Users\\Admin\\AppData\\Local\\Programs\\Python\\Python310-32\\lib\\site-packages\\PyQt5\\QtWidgets.pyd',
   'EXTENSION'),
  ('PyQt5.sip',
   'C:\\Users\\Admin\\AppData\\Local\\Programs\\Python\\Python310-32\\lib\\site-packages\\PyQt5\\sip.cp310-win32.pyd',
   'EXTENSION'),
  ('Qt5Core.dll',
   'C:\\Users\\Admin\\AppData\\Local\\Programs\\Python\\Python310-32\\lib\\site-packages\\PyQt5\\Qt5\\bin\\Qt5Core.dll',
   'BINARY'),
  ('Qt5Gui.dll',
   'C:\\Users\\Admin\\AppData\\Local\\Programs\\Python\\Python310-32\\lib\\site-packages\\PyQt5\\Qt5\\bin\\Qt5Gui.dll',
   'BINARY'),
  ('Qt5DBus.dll',
   'C:\\Users\\Admin\\AppData\\Local\\Programs\\Python\\Python310-32\\lib\\site-packages\\PyQt5\\Qt5\\bin\\Qt5DBus.dll',
   'BINARY'),
  ('Qt5Widgets.dll',
   'C:\\Users\\Admin\\AppData\\Local\\Programs\\Python\\Python310-32\\lib\\site-packages\\PyQt5\\Qt5\\bin\\Qt5Widgets.dll',
   'BINARY'),
  ('MSVCP140.dll',
   'C:\\Users\\Admin\\AppData\\Local\\Programs\\Python\\Python310-32\\lib\\site-packages\\PyQt5\\Qt5\\bin\\MSVCP140.dll',
   'BINARY'),
  ('Qt5Svg.dll',
   'C:\\Users\\Admin\\AppData\\Local\\Programs\\Python\\Python310-32\\lib\\site-packages\\PyQt5\\Qt5\\bin\\Qt5Svg.dll',
   'BINARY'),
  ('Qt5Quick.dll',
   'C:\\Users\\Admin\\AppData\\Local\\Programs\\Python\\Python310-32\\lib\\site-packages\\PyQt5\\Qt5\\bin\\Qt5Quick.dll',
   'BINARY'),
  ('Qt5WebSockets.dll',
   'C:\\Users\\Admin\\AppData\\Local\\Programs\\Python\\Python310-32\\lib\\site-packages\\PyQt5\\Qt5\\bin\\Qt5WebSockets.dll',
   'BINARY'),
  ('Qt5Network.dll',
   'C:\\Users\\Admin\\AppData\\Local\\Programs\\Python\\Python310-32\\lib\\site-packages\\PyQt5\\Qt5\\bin\\Qt5Network.dll',
   'BINARY'),
  ('libcrypto-1_1.dll',
   'C:\\Users\\Admin\\AppData\\Local\\Programs\\Python\\Python310-32\\DLLs\\libcrypto-1_1.dll',
   'BINARY'),
  ('libssl-1_1.dll',
   'C:\\Users\\Admin\\AppData\\Local\\Programs\\Python\\Python310-32\\DLLs\\libssl-1_1.dll',
   'BINARY'),
  ('libffi-7.dll',
   'C:\\Users\\Admin\\AppData\\Local\\Programs\\Python\\Python310-32\\DLLs\\libffi-7.dll',
   'BINARY'),
  ('python3.dll',
   'C:\\Users\\Admin\\AppData\\Local\\Programs\\Python\\Python310-32\\python3.dll',
   'BINARY'),
  ('sqlite3.dll',
   'C:\\Users\\Admin\\AppData\\Local\\Programs\\Python\\Python310-32\\DLLs\\sqlite3.dll',
   'BINARY'),
  ('MSVCP140_1.dll',
   'C:\\Users\\Admin\\AppData\\Local\\Programs\\Python\\Python310-32\\lib\\site-packages\\PyQt5\\Qt5\\bin\\MSVCP140_1.dll',
   'BINARY'),
  ('Qt5Qml.dll',
   'C:\\Users\\Admin\\AppData\\Local\\Programs\\Python\\Python310-32\\lib\\site-packages\\PyQt5\\Qt5\\bin\\Qt5Qml.dll',
   'BINARY'),
  ('Qt5QmlModels.dll',
   'C:\\Users\\Admin\\AppData\\Local\\Programs\\Python\\Python310-32\\lib\\site-packages\\PyQt5\\Qt5\\bin\\Qt5QmlModels.dll',
   'BINARY'),
  ('base_library.zip',
   'C:\\code\\python\\ur4\\build\\main\\base_library.zip',
   'DATA'),
  ('PyQt5\\Qt5\\translations\\qtbase_de.qm',
   'C:\\Users\\Admin\\AppData\\Local\\Programs\\Python\\Python310-32\\lib\\site-packages\\PyQt5\\Qt5\\translations\\qtbase_de.qm',
   'DATA'),
  ('PyQt5\\Qt5\\translations\\qtbase_fi.qm',
   'C:\\Users\\Admin\\AppData\\Local\\Programs\\Python\\Python310-32\\lib\\site-packages\\PyQt5\\Qt5\\translations\\qtbase_fi.qm',
   'DATA'),
  ('PyQt5\\Qt5\\translations\\qtbase_ar.qm',
   'C:\\Users\\Admin\\AppData\\Local\\Programs\\Python\\Python310-32\\lib\\site-packages\\PyQt5\\Qt5\\translations\\qtbase_ar.qm',
   'DATA'),
  ('PyQt5\\Qt5\\translations\\qtbase_es.qm',
   'C:\\Users\\Admin\\AppData\\Local\\Programs\\Python\\Python310-32\\lib\\site-packages\\PyQt5\\Qt5\\translations\\qtbase_es.qm',
   'DATA'),
  ('certifi\\cacert.pem',
   'C:\\Users\\Admin\\AppData\\Local\\Programs\\Python\\Python310-32\\lib\\site-packages\\certifi\\cacert.pem',
   'DATA'),
  ('PyQt5\\Qt5\\translations\\qtbase_gd.qm',
   'C:\\Users\\Admin\\AppData\\Local\\Programs\\Python\\Python310-32\\lib\\site-packages\\PyQt5\\Qt5\\translations\\qtbase_gd.qm',
   'DATA'),
  ('PyQt5\\Qt5\\translations\\qtbase_pl.qm',
   'C:\\Users\\Admin\\AppData\\Local\\Programs\\Python\\Python310-32\\lib\\site-packages\\PyQt5\\Qt5\\translations\\qtbase_pl.qm',
   'DATA'),
  ('PyQt5\\Qt5\\translations\\qtbase_lv.qm',
   'C:\\Users\\Admin\\AppData\\Local\\Programs\\Python\\Python310-32\\lib\\site-packages\\PyQt5\\Qt5\\translations\\qtbase_lv.qm',
   'DATA'),
  ('PyQt5\\Qt5\\translations\\qtbase_sk.qm',
   'C:\\Users\\Admin\\AppData\\Local\\Programs\\Python\\Python310-32\\lib\\site-packages\\PyQt5\\Qt5\\translations\\qtbase_sk.qm',
   'DATA'),
  ('PyQt5\\Qt5\\translations\\qtbase_da.qm',
   'C:\\Users\\Admin\\AppData\\Local\\Programs\\Python\\Python310-32\\lib\\site-packages\\PyQt5\\Qt5\\translations\\qtbase_da.qm',
   'DATA'),
  ('PyQt5\\Qt5\\translations\\qtbase_he.qm',
   'C:\\Users\\Admin\\AppData\\Local\\Programs\\Python\\Python310-32\\lib\\site-packages\\PyQt5\\Qt5\\translations\\qtbase_he.qm',
   'DATA'),
  ('PyQt5\\Qt5\\translations\\qtbase_fr.qm',
   'C:\\Users\\Admin\\AppData\\Local\\Programs\\Python\\Python310-32\\lib\\site-packages\\PyQt5\\Qt5\\translations\\qtbase_fr.qm',
   'DATA'),
  ('PyQt5\\Qt5\\translations\\qtbase_bg.qm',
   'C:\\Users\\Admin\\AppData\\Local\\Programs\\Python\\Python310-32\\lib\\site-packages\\PyQt5\\Qt5\\translations\\qtbase_bg.qm',
   'DATA'),
  ('PyQt5\\Qt5\\translations\\qtbase_cs.qm',
   'C:\\Users\\Admin\\AppData\\Local\\Programs\\Python\\Python310-32\\lib\\site-packages\\PyQt5\\Qt5\\translations\\qtbase_cs.qm',
   'DATA'),
  ('PyQt5\\Qt5\\translations\\qtbase_ru.qm',
   'C:\\Users\\Admin\\AppData\\Local\\Programs\\Python\\Python310-32\\lib\\site-packages\\PyQt5\\Qt5\\translations\\qtbase_ru.qm',
   'DATA'),
  ('PyQt5\\Qt5\\translations\\qtbase_ja.qm',
   'C:\\Users\\Admin\\AppData\\Local\\Programs\\Python\\Python310-32\\lib\\site-packages\\PyQt5\\Qt5\\translations\\qtbase_ja.qm',
   'DATA'),
  ('PyQt5\\Qt5\\translations\\qtbase_zh_TW.qm',
   'C:\\Users\\Admin\\AppData\\Local\\Programs\\Python\\Python310-32\\lib\\site-packages\\PyQt5\\Qt5\\translations\\qtbase_zh_TW.qm',
   'DATA'),
  ('PyQt5\\Qt5\\translations\\qtbase_hu.qm',
   'C:\\Users\\Admin\\AppData\\Local\\Programs\\Python\\Python310-32\\lib\\site-packages\\PyQt5\\Qt5\\translations\\qtbase_hu.qm',
   'DATA'),
  ('PyQt5\\Qt5\\translations\\qtbase_tr.qm',
   'C:\\Users\\Admin\\AppData\\Local\\Programs\\Python\\Python310-32\\lib\\site-packages\\PyQt5\\Qt5\\translations\\qtbase_tr.qm',
   'DATA'),
  ('PyQt5\\Qt5\\translations\\qtbase_uk.qm',
   'C:\\Users\\Admin\\AppData\\Local\\Programs\\Python\\Python310-32\\lib\\site-packages\\PyQt5\\Qt5\\translations\\qtbase_uk.qm',
   'DATA'),
  ('PyQt5\\Qt5\\translations\\qtbase_en.qm',
   'C:\\Users\\Admin\\AppData\\Local\\Programs\\Python\\Python310-32\\lib\\site-packages\\PyQt5\\Qt5\\translations\\qtbase_en.qm',
   'DATA'),
  ('PyQt5\\Qt5\\translations\\qtbase_it.qm',
   'C:\\Users\\Admin\\AppData\\Local\\Programs\\Python\\Python310-32\\lib\\site-packages\\PyQt5\\Qt5\\translations\\qtbase_it.qm',
   'DATA'),
  ('PyQt5\\Qt5\\translations\\qtbase_ko.qm',
   'C:\\Users\\Admin\\AppData\\Local\\Programs\\Python\\Python310-32\\lib\\site-packages\\PyQt5\\Qt5\\translations\\qtbase_ko.qm',
   'DATA'),
  ('PyQt5\\Qt5\\translations\\qtbase_ca.qm',
   'C:\\Users\\Admin\\AppData\\Local\\Programs\\Python\\Python310-32\\lib\\site-packages\\PyQt5\\Qt5\\translations\\qtbase_ca.qm',
   'DATA')],
 [],
 False,
 False,
 1650018589,
 [('runw.exe',
   'C:\\Users\\Admin\\AppData\\Local\\Programs\\Python\\Python310-32\\lib\\site-packages\\PyInstaller\\bootloader\\Windows-32bit\\runw.exe',
   'EXECUTABLE')])
