('C:\\code\\python\\ur4\\build\\main\\PYZ-00.pyz',
 [('os',
   'C:\\Users\\Admin\\AppData\\Local\\Programs\\Python\\Python310-32\\lib\\os.py',
   'PYMODULE'),
  ('subprocess',
   'C:\\Users\\Admin\\AppData\\Local\\Programs\\Python\\Python310-32\\lib\\subprocess.py',
   'PYMODULE'),
  ('selectors',
   'C:\\Users\\Admin\\AppData\\Local\\Programs\\Python\\Python310-32\\lib\\selectors.py',
   'PYMODULE'),
  ('contextlib',
   'C:\\Users\\Admin\\AppData\\Local\\Programs\\Python\\Python310-32\\lib\\contextlib.py',
   'PYMODULE'),
  ('threading',
   'C:\\Users\\Admin\\AppData\\Local\\Programs\\Python\\Python310-32\\lib\\threading.py',
   'PYMODULE'),
  ('_threading_local',
   'C:\\Users\\Admin\\AppData\\Local\\Programs\\Python\\Python310-32\\lib\\_threading_local.py',
   'PYMODULE'),
  ('signal',
   'C:\\Users\\Admin\\AppData\\Local\\Programs\\Python\\Python310-32\\lib\\signal.py',
   'PYMODULE'),
  ('_strptime',
   'C:\\Users\\Admin\\AppData\\Local\\Programs\\Python\\Python310-32\\lib\\_strptime.py',
   'PYMODULE'),
  ('datetime',
   'C:\\Users\\Admin\\AppData\\Local\\Programs\\Python\\Python310-32\\lib\\datetime.py',
   'PYMODULE'),
  ('calendar',
   'C:\\Users\\Admin\\AppData\\Local\\Programs\\Python\\Python310-32\\lib\\calendar.py',
   'PYMODULE'),
  ('argparse',
   'C:\\Users\\Admin\\AppData\\Local\\Programs\\Python\\Python310-32\\lib\\argparse.py',
   'PYMODULE'),
  ('textwrap',
   'C:\\Users\\Admin\\AppData\\Local\\Programs\\Python\\Python310-32\\lib\\textwrap.py',
   'PYMODULE'),
  ('shutil',
   'C:\\Users\\Admin\\AppData\\Local\\Programs\\Python\\Python310-32\\lib\\shutil.py',
   'PYMODULE'),
  ('zipfile',
   'C:\\Users\\Admin\\AppData\\Local\\Programs\\Python\\Python310-32\\lib\\zipfile.py',
   'PYMODULE'),
  ('py_compile',
   'C:\\Users\\Admin\\AppData\\Local\\Programs\\Python\\Python310-32\\lib\\py_compile.py',
   'PYMODULE'),
  ('importlib.machinery',
   'C:\\Users\\Admin\\AppData\\Local\\Programs\\Python\\Python310-32\\lib\\importlib\\machinery.py',
   'PYMODULE'),
  ('importlib',
   'C:\\Users\\Admin\\AppData\\Local\\Programs\\Python\\Python310-32\\lib\\importlib\\__init__.py',
   'PYMODULE'),
  ('importlib._common',
   'C:\\Users\\Admin\\AppData\\Local\\Programs\\Python\\Python310-32\\lib\\importlib\\_common.py',
   'PYMODULE'),
  ('importlib._adapters',
   'C:\\Users\\Admin\\AppData\\Local\\Programs\\Python\\Python310-32\\lib\\importlib\\_adapters.py',
   'PYMODULE'),
  ('typing',
   'C:\\Users\\Admin\\AppData\\Local\\Programs\\Python\\Python310-32\\lib\\typing.py',
   'PYMODULE'),
  ('tempfile',
   'C:\\Users\\Admin\\AppData\\Local\\Programs\\Python\\Python310-32\\lib\\tempfile.py',
   'PYMODULE'),
  ('random',
   'C:\\Users\\Admin\\AppData\\Local\\Programs\\Python\\Python310-32\\lib\\random.py',
   'PYMODULE'),
  ('statistics',
   'C:\\Users\\Admin\\AppData\\Local\\Programs\\Python\\Python310-32\\lib\\statistics.py',
   'PYMODULE'),
  ('decimal',
   'C:\\Users\\Admin\\AppData\\Local\\Programs\\Python\\Python310-32\\lib\\decimal.py',
   'PYMODULE'),
  ('_pydecimal',
   'C:\\Users\\Admin\\AppData\\Local\\Programs\\Python\\Python310-32\\lib\\_pydecimal.py',
   'PYMODULE'),
  ('contextvars',
   'C:\\Users\\Admin\\AppData\\Local\\Programs\\Python\\Python310-32\\lib\\contextvars.py',
   'PYMODULE'),
  ('fractions',
   'C:\\Users\\Admin\\AppData\\Local\\Programs\\Python\\Python310-32\\lib\\fractions.py',
   'PYMODULE'),
  ('numbers',
   'C:\\Users\\Admin\\AppData\\Local\\Programs\\Python\\Python310-32\\lib\\numbers.py',
   'PYMODULE'),
  ('hashlib',
   'C:\\Users\\Admin\\AppData\\Local\\Programs\\Python\\Python310-32\\lib\\hashlib.py',
   'PYMODULE'),
  ('logging',
   'C:\\Users\\Admin\\AppData\\Local\\Programs\\Python\\Python310-32\\lib\\logging\\__init__.py',
   'PYMODULE'),
  ('pickle',
   'C:\\Users\\Admin\\AppData\\Local\\Programs\\Python\\Python310-32\\lib\\pickle.py',
   'PYMODULE'),
  ('pprint',
   'C:\\Users\\Admin\\AppData\\Local\\Programs\\Python\\Python310-32\\lib\\pprint.py',
   'PYMODULE'),
  ('dataclasses',
   'C:\\Users\\Admin\\AppData\\Local\\Programs\\Python\\Python310-32\\lib\\dataclasses.py',
   'PYMODULE'),
  ('inspect',
   'C:\\Users\\Admin\\AppData\\Local\\Programs\\Python\\Python310-32\\lib\\inspect.py',
   'PYMODULE'),
  ('token',
   'C:\\Users\\Admin\\AppData\\Local\\Programs\\Python\\Python310-32\\lib\\token.py',
   'PYMODULE'),
  ('dis',
   'C:\\Users\\Admin\\AppData\\Local\\Programs\\Python\\Python310-32\\lib\\dis.py',
   'PYMODULE'),
  ('opcode',
   'C:\\Users\\Admin\\AppData\\Local\\Programs\\Python\\Python310-32\\lib\\opcode.py',
   'PYMODULE'),
  ('ast',
   'C:\\Users\\Admin\\AppData\\Local\\Programs\\Python\\Python310-32\\lib\\ast.py',
   'PYMODULE'),
  ('doctest',
   'C:\\Users\\Admin\\AppData\\Local\\Programs\\Python\\Python310-32\\lib\\doctest.py',
   'PYMODULE'),
  ('unittest',
   'C:\\Users\\Admin\\AppData\\Local\\Programs\\Python\\Python310-32\\lib\\unittest\\__init__.py',
   'PYMODULE'),
  ('unittest.async_case',
   'C:\\Users\\Admin\\AppData\\Local\\Programs\\Python\\Python310-32\\lib\\unittest\\async_case.py',
   'PYMODULE'),
  ('asyncio',
   'C:\\Users\\Admin\\AppData\\Local\\Programs\\Python\\Python310-32\\lib\\asyncio\\__init__.py',
   'PYMODULE'),
  ('asyncio.unix_events',
   'C:\\Users\\Admin\\AppData\\Local\\Programs\\Python\\Python310-32\\lib\\asyncio\\unix_events.py',
   'PYMODULE'),
  ('asyncio.log',
   'C:\\Users\\Admin\\AppData\\Local\\Programs\\Python\\Python310-32\\lib\\asyncio\\log.py',
   'PYMODULE'),
  ('socket',
   'C:\\Users\\Admin\\AppData\\Local\\Programs\\Python\\Python310-32\\lib\\socket.py',
   'PYMODULE'),
  ('asyncio.windows_events',
   'C:\\Users\\Admin\\AppData\\Local\\Programs\\Python\\Python310-32\\lib\\asyncio\\windows_events.py',
   'PYMODULE'),
  ('asyncio.windows_utils',
   'C:\\Users\\Admin\\AppData\\Local\\Programs\\Python\\Python310-32\\lib\\asyncio\\windows_utils.py',
   'PYMODULE'),
  ('asyncio.selector_events',
   'C:\\Users\\Admin\\AppData\\Local\\Programs\\Python\\Python310-32\\lib\\asyncio\\selector_events.py',
   'PYMODULE'),
  ('ssl',
   'C:\\Users\\Admin\\AppData\\Local\\Programs\\Python\\Python310-32\\lib\\ssl.py',
   'PYMODULE'),
  ('base64',
   'C:\\Users\\Admin\\AppData\\Local\\Programs\\Python\\Python310-32\\lib\\base64.py',
   'PYMODULE'),
  ('getopt',
   'C:\\Users\\Admin\\AppData\\Local\\Programs\\Python\\Python310-32\\lib\\getopt.py',
   'PYMODULE'),
  ('asyncio.proactor_events',
   'C:\\Users\\Admin\\AppData\\Local\\Programs\\Python\\Python310-32\\lib\\asyncio\\proactor_events.py',
   'PYMODULE'),
  ('asyncio.base_subprocess',
   'C:\\Users\\Admin\\AppData\\Local\\Programs\\Python\\Python310-32\\lib\\asyncio\\base_subprocess.py',
   'PYMODULE'),
  ('asyncio.threads',
   'C:\\Users\\Admin\\AppData\\Local\\Programs\\Python\\Python310-32\\lib\\asyncio\\threads.py',
   'PYMODULE'),
  ('asyncio.subprocess',
   'C:\\Users\\Admin\\AppData\\Local\\Programs\\Python\\Python310-32\\lib\\asyncio\\subprocess.py',
   'PYMODULE'),
  ('asyncio.streams',
   'C:\\Users\\Admin\\AppData\\Local\\Programs\\Python\\Python310-32\\lib\\asyncio\\streams.py',
   'PYMODULE'),
  ('asyncio.queues',
   'C:\\Users\\Admin\\AppData\\Local\\Programs\\Python\\Python310-32\\lib\\asyncio\\queues.py',
   'PYMODULE'),
  ('asyncio.runners',
   'C:\\Users\\Admin\\AppData\\Local\\Programs\\Python\\Python310-32\\lib\\asyncio\\runners.py',
   'PYMODULE'),
  ('asyncio.events',
   'C:\\Users\\Admin\\AppData\\Local\\Programs\\Python\\Python310-32\\lib\\asyncio\\events.py',
   'PYMODULE'),
  ('asyncio.base_events',
   'C:\\Users\\Admin\\AppData\\Local\\Programs\\Python\\Python310-32\\lib\\asyncio\\base_events.py',
   'PYMODULE'),
  ('concurrent.futures',
   'C:\\Users\\Admin\\AppData\\Local\\Programs\\Python\\Python310-32\\lib\\concurrent\\futures\\__init__.py',
   'PYMODULE'),
  ('concurrent.futures.thread',
   'C:\\Users\\Admin\\AppData\\Local\\Programs\\Python\\Python310-32\\lib\\concurrent\\futures\\thread.py',
   'PYMODULE'),
  ('queue',
   'C:\\Users\\Admin\\AppData\\Local\\Programs\\Python\\Python310-32\\lib\\queue.py',
   'PYMODULE'),
  ('concurrent.futures.process',
   'C:\\Users\\Admin\\AppData\\Local\\Programs\\Python\\Python310-32\\lib\\concurrent\\futures\\process.py',
   'PYMODULE'),
  ('multiprocessing.synchronize',
   'C:\\Users\\Admin\\AppData\\Local\\Programs\\Python\\Python310-32\\lib\\multiprocessing\\synchronize.py',
   'PYMODULE'),
  ('multiprocessing.heap',
   'C:\\Users\\Admin\\AppData\\Local\\Programs\\Python\\Python310-32\\lib\\multiprocessing\\heap.py',
   'PYMODULE'),
  ('multiprocessing.resource_tracker',
   'C:\\Users\\Admin\\AppData\\Local\\Programs\\Python\\Python310-32\\lib\\multiprocessing\\resource_tracker.py',
   'PYMODULE'),
  ('multiprocessing.spawn',
   'C:\\Users\\Admin\\AppData\\Local\\Programs\\Python\\Python310-32\\lib\\multiprocessing\\spawn.py',
   'PYMODULE'),
  ('runpy',
   'C:\\Users\\Admin\\AppData\\Local\\Programs\\Python\\Python310-32\\lib\\runpy.py',
   'PYMODULE'),
  ('pkgutil',
   'C:\\Users\\Admin\\AppData\\Local\\Programs\\Python\\Python310-32\\lib\\pkgutil.py',
   'PYMODULE'),
  ('zipimport',
   'C:\\Users\\Admin\\AppData\\Local\\Programs\\Python\\Python310-32\\lib\\zipimport.py',
   'PYMODULE'),
  ('importlib.readers',
   'C:\\Users\\Admin\\AppData\\Local\\Programs\\Python\\Python310-32\\lib\\importlib\\readers.py',
   'PYMODULE'),
  ('multiprocessing.util',
   'C:\\Users\\Admin\\AppData\\Local\\Programs\\Python\\Python310-32\\lib\\multiprocessing\\util.py',
   'PYMODULE'),
  ('multiprocessing.forkserver',
   'C:\\Users\\Admin\\AppData\\Local\\Programs\\Python\\Python310-32\\lib\\multiprocessing\\forkserver.py',
   'PYMODULE'),
  ('multiprocessing.process',
   'C:\\Users\\Admin\\AppData\\Local\\Programs\\Python\\Python310-32\\lib\\multiprocessing\\process.py',
   'PYMODULE'),
  ('multiprocessing.context',
   'C:\\Users\\Admin\\AppData\\Local\\Programs\\Python\\Python310-32\\lib\\multiprocessing\\context.py',
   'PYMODULE'),
  ('multiprocessing.popen_spawn_win32',
   'C:\\Users\\Admin\\AppData\\Local\\Programs\\Python\\Python310-32\\lib\\multiprocessing\\popen_spawn_win32.py',
   'PYMODULE'),
  ('multiprocessing.popen_forkserver',
   'C:\\Users\\Admin\\AppData\\Local\\Programs\\Python\\Python310-32\\lib\\multiprocessing\\popen_forkserver.py',
   'PYMODULE'),
  ('multiprocessing.popen_spawn_posix',
   'C:\\Users\\Admin\\AppData\\Local\\Programs\\Python\\Python310-32\\lib\\multiprocessing\\popen_spawn_posix.py',
   'PYMODULE'),
  ('multiprocessing.popen_fork',
   'C:\\Users\\Admin\\AppData\\Local\\Programs\\Python\\Python310-32\\lib\\multiprocessing\\popen_fork.py',
   'PYMODULE'),
  ('multiprocessing.sharedctypes',
   'C:\\Users\\Admin\\AppData\\Local\\Programs\\Python\\Python310-32\\lib\\multiprocessing\\sharedctypes.py',
   'PYMODULE'),
  ('ctypes',
   'C:\\Users\\Admin\\AppData\\Local\\Programs\\Python\\Python310-32\\lib\\ctypes\\__init__.py',
   'PYMODULE'),
  ('ctypes._endian',
   'C:\\Users\\Admin\\AppData\\Local\\Programs\\Python\\Python310-32\\lib\\ctypes\\_endian.py',
   'PYMODULE'),
  ('multiprocessing.pool',
   'C:\\Users\\Admin\\AppData\\Local\\Programs\\Python\\Python310-32\\lib\\multiprocessing\\pool.py',
   'PYMODULE'),
  ('multiprocessing.dummy',
   'C:\\Users\\Admin\\AppData\\Local\\Programs\\Python\\Python310-32\\lib\\multiprocessing\\dummy\\__init__.py',
   'PYMODULE'),
  ('multiprocessing.dummy.connection',
   'C:\\Users\\Admin\\AppData\\Local\\Programs\\Python\\Python310-32\\lib\\multiprocessing\\dummy\\connection.py',
   'PYMODULE'),
  ('multiprocessing.managers',
   'C:\\Users\\Admin\\AppData\\Local\\Programs\\Python\\Python310-32\\lib\\multiprocessing\\managers.py',
   'PYMODULE'),
  ('multiprocessing.shared_memory',
   'C:\\Users\\Admin\\AppData\\Local\\Programs\\Python\\Python310-32\\lib\\multiprocessing\\shared_memory.py',
   'PYMODULE'),
  ('secrets',
   'C:\\Users\\Admin\\AppData\\Local\\Programs\\Python\\Python310-32\\lib\\secrets.py',
   'PYMODULE'),
  ('hmac',
   'C:\\Users\\Admin\\AppData\\Local\\Programs\\Python\\Python310-32\\lib\\hmac.py',
   'PYMODULE'),
  ('multiprocessing.reduction',
   'C:\\Users\\Admin\\AppData\\Local\\Programs\\Python\\Python310-32\\lib\\multiprocessing\\reduction.py',
   'PYMODULE'),
  ('multiprocessing.resource_sharer',
   'C:\\Users\\Admin\\AppData\\Local\\Programs\\Python\\Python310-32\\lib\\multiprocessing\\resource_sharer.py',
   'PYMODULE'),
  ('multiprocessing.queues',
   'C:\\Users\\Admin\\AppData\\Local\\Programs\\Python\\Python310-32\\lib\\multiprocessing\\queues.py',
   'PYMODULE'),
  ('multiprocessing.connection',
   'C:\\Users\\Admin\\AppData\\Local\\Programs\\Python\\Python310-32\\lib\\multiprocessing\\connection.py',
   'PYMODULE'),
  ('xmlrpc.client',
   'C:\\Users\\Admin\\AppData\\Local\\Programs\\Python\\Python310-32\\lib\\xmlrpc\\client.py',
   'PYMODULE'),
  ('xmlrpc',
   'C:\\Users\\Admin\\AppData\\Local\\Programs\\Python\\Python310-32\\lib\\xmlrpc\\__init__.py',
   'PYMODULE'),
  ('gzip',
   'C:\\Users\\Admin\\AppData\\Local\\Programs\\Python\\Python310-32\\lib\\gzip.py',
   'PYMODULE'),
  ('_compression',
   'C:\\Users\\Admin\\AppData\\Local\\Programs\\Python\\Python310-32\\lib\\_compression.py',
   'PYMODULE'),
  ('xml.parsers.expat',
   'C:\\Users\\Admin\\AppData\\Local\\Programs\\Python\\Python310-32\\lib\\xml\\parsers\\expat.py',
   'PYMODULE'),
  ('xml.parsers',
   'C:\\Users\\Admin\\AppData\\Local\\Programs\\Python\\Python310-32\\lib\\xml\\parsers\\__init__.py',
   'PYMODULE'),
  ('xml',
   'C:\\Users\\Admin\\AppData\\Local\\Programs\\Python\\Python310-32\\lib\\xml\\__init__.py',
   'PYMODULE'),
  ('xml.sax.expatreader',
   'C:\\Users\\Admin\\AppData\\Local\\Programs\\Python\\Python310-32\\lib\\xml\\sax\\expatreader.py',
   'PYMODULE'),
  ('xml.sax.saxutils',
   'C:\\Users\\Admin\\AppData\\Local\\Programs\\Python\\Python310-32\\lib\\xml\\sax\\saxutils.py',
   'PYMODULE'),
  ('urllib.request',
   'C:\\Users\\Admin\\AppData\\Local\\Programs\\Python\\Python310-32\\lib\\urllib\\request.py',
   'PYMODULE'),
  ('getpass',
   'C:\\Users\\Admin\\AppData\\Local\\Programs\\Python\\Python310-32\\lib\\getpass.py',
   'PYMODULE'),
  ('nturl2path',
   'C:\\Users\\Admin\\AppData\\Local\\Programs\\Python\\Python310-32\\lib\\nturl2path.py',
   'PYMODULE'),
  ('ftplib',
   'C:\\Users\\Admin\\AppData\\Local\\Programs\\Python\\Python310-32\\lib\\ftplib.py',
   'PYMODULE'),
  ('netrc',
   'C:\\Users\\Admin\\AppData\\Local\\Programs\\Python\\Python310-32\\lib\\netrc.py',
   'PYMODULE'),
  ('shlex',
   'C:\\Users\\Admin\\AppData\\Local\\Programs\\Python\\Python310-32\\lib\\shlex.py',
   'PYMODULE'),
  ('mimetypes',
   'C:\\Users\\Admin\\AppData\\Local\\Programs\\Python\\Python310-32\\lib\\mimetypes.py',
   'PYMODULE'),
  ('email.utils',
   'C:\\Users\\Admin\\AppData\\Local\\Programs\\Python\\Python310-32\\lib\\email\\utils.py',
   'PYMODULE'),
  ('email.charset',
   'C:\\Users\\Admin\\AppData\\Local\\Programs\\Python\\Python310-32\\lib\\email\\charset.py',
   'PYMODULE'),
  ('email.encoders',
   'C:\\Users\\Admin\\AppData\\Local\\Programs\\Python\\Python310-32\\lib\\email\\encoders.py',
   'PYMODULE'),
  ('quopri',
   'C:\\Users\\Admin\\AppData\\Local\\Programs\\Python\\Python310-32\\lib\\quopri.py',
   'PYMODULE'),
  ('email.errors',
   'C:\\Users\\Admin\\AppData\\Local\\Programs\\Python\\Python310-32\\lib\\email\\errors.py',
   'PYMODULE'),
  ('email.quoprimime',
   'C:\\Users\\Admin\\AppData\\Local\\Programs\\Python\\Python310-32\\lib\\email\\quoprimime.py',
   'PYMODULE'),
  ('email.base64mime',
   'C:\\Users\\Admin\\AppData\\Local\\Programs\\Python\\Python310-32\\lib\\email\\base64mime.py',
   'PYMODULE'),
  ('email._parseaddr',
   'C:\\Users\\Admin\\AppData\\Local\\Programs\\Python\\Python310-32\\lib\\email\\_parseaddr.py',
   'PYMODULE'),
  ('http.cookiejar',
   'C:\\Users\\Admin\\AppData\\Local\\Programs\\Python\\Python310-32\\lib\\http\\cookiejar.py',
   'PYMODULE'),
  ('http',
   'C:\\Users\\Admin\\AppData\\Local\\Programs\\Python\\Python310-32\\lib\\http\\__init__.py',
   'PYMODULE'),
  ('urllib',
   'C:\\Users\\Admin\\AppData\\Local\\Programs\\Python\\Python310-32\\lib\\urllib\\__init__.py',
   'PYMODULE'),
  ('urllib.response',
   'C:\\Users\\Admin\\AppData\\Local\\Programs\\Python\\Python310-32\\lib\\urllib\\response.py',
   'PYMODULE'),
  ('urllib.error',
   'C:\\Users\\Admin\\AppData\\Local\\Programs\\Python\\Python310-32\\lib\\urllib\\error.py',
   'PYMODULE'),
  ('email',
   'C:\\Users\\Admin\\AppData\\Local\\Programs\\Python\\Python310-32\\lib\\email\\__init__.py',
   'PYMODULE'),
  ('email.parser',
   'C:\\Users\\Admin\\AppData\\Local\\Programs\\Python\\Python310-32\\lib\\email\\parser.py',
   'PYMODULE'),
  ('email._policybase',
   'C:\\Users\\Admin\\AppData\\Local\\Programs\\Python\\Python310-32\\lib\\email\\_policybase.py',
   'PYMODULE'),
  ('email.feedparser',
   'C:\\Users\\Admin\\AppData\\Local\\Programs\\Python\\Python310-32\\lib\\email\\feedparser.py',
   'PYMODULE'),
  ('email.message',
   'C:\\Users\\Admin\\AppData\\Local\\Programs\\Python\\Python310-32\\lib\\email\\message.py',
   'PYMODULE'),
  ('email.policy',
   'C:\\Users\\Admin\\AppData\\Local\\Programs\\Python\\Python310-32\\lib\\email\\policy.py',
   'PYMODULE'),
  ('email.contentmanager',
   'C:\\Users\\Admin\\AppData\\Local\\Programs\\Python\\Python310-32\\lib\\email\\contentmanager.py',
   'PYMODULE'),
  ('email.headerregistry',
   'C:\\Users\\Admin\\AppData\\Local\\Programs\\Python\\Python310-32\\lib\\email\\headerregistry.py',
   'PYMODULE'),
  ('email.iterators',
   'C:\\Users\\Admin\\AppData\\Local\\Programs\\Python\\Python310-32\\lib\\email\\iterators.py',
   'PYMODULE'),
  ('email.generator',
   'C:\\Users\\Admin\\AppData\\Local\\Programs\\Python\\Python310-32\\lib\\email\\generator.py',
   'PYMODULE'),
  ('email._encoded_words',
   'C:\\Users\\Admin\\AppData\\Local\\Programs\\Python\\Python310-32\\lib\\email\\_encoded_words.py',
   'PYMODULE'),
  ('uu',
   'C:\\Users\\Admin\\AppData\\Local\\Programs\\Python\\Python310-32\\lib\\uu.py',
   'PYMODULE'),
  ('optparse',
   'C:\\Users\\Admin\\AppData\\Local\\Programs\\Python\\Python310-32\\lib\\optparse.py',
   'PYMODULE'),
  ('email._header_value_parser',
   'C:\\Users\\Admin\\AppData\\Local\\Programs\\Python\\Python310-32\\lib\\email\\_header_value_parser.py',
   'PYMODULE'),
  ('email.header',
   'C:\\Users\\Admin\\AppData\\Local\\Programs\\Python\\Python310-32\\lib\\email\\header.py',
   'PYMODULE'),
  ('xml.sax',
   'C:\\Users\\Admin\\AppData\\Local\\Programs\\Python\\Python310-32\\lib\\xml\\sax\\__init__.py',
   'PYMODULE'),
  ('xml.sax.handler',
   'C:\\Users\\Admin\\AppData\\Local\\Programs\\Python\\Python310-32\\lib\\xml\\sax\\handler.py',
   'PYMODULE'),
  ('xml.sax._exceptions',
   'C:\\Users\\Admin\\AppData\\Local\\Programs\\Python\\Python310-32\\lib\\xml\\sax\\_exceptions.py',
   'PYMODULE'),
  ('xml.sax.xmlreader',
   'C:\\Users\\Admin\\AppData\\Local\\Programs\\Python\\Python310-32\\lib\\xml\\sax\\xmlreader.py',
   'PYMODULE'),
  ('urllib.parse',
   'C:\\Users\\Admin\\AppData\\Local\\Programs\\Python\\Python310-32\\lib\\urllib\\parse.py',
   'PYMODULE'),
  ('http.client',
   'C:\\Users\\Admin\\AppData\\Local\\Programs\\Python\\Python310-32\\lib\\http\\client.py',
   'PYMODULE'),
  ('multiprocessing',
   'C:\\Users\\Admin\\AppData\\Local\\Programs\\Python\\Python310-32\\lib\\multiprocessing\\__init__.py',
   'PYMODULE'),
  ('concurrent.futures._base',
   'C:\\Users\\Admin\\AppData\\Local\\Programs\\Python\\Python310-32\\lib\\concurrent\\futures\\_base.py',
   'PYMODULE'),
  ('concurrent',
   'C:\\Users\\Admin\\AppData\\Local\\Programs\\Python\\Python310-32\\lib\\concurrent\\__init__.py',
   'PYMODULE'),
  ('asyncio.trsock',
   'C:\\Users\\Admin\\AppData\\Local\\Programs\\Python\\Python310-32\\lib\\asyncio\\trsock.py',
   'PYMODULE'),
  ('asyncio.staggered',
   'C:\\Users\\Admin\\AppData\\Local\\Programs\\Python\\Python310-32\\lib\\asyncio\\staggered.py',
   'PYMODULE'),
  ('asyncio.tasks',
   'C:\\Users\\Admin\\AppData\\Local\\Programs\\Python\\Python310-32\\lib\\asyncio\\tasks.py',
   'PYMODULE'),
  ('asyncio.locks',
   'C:\\Users\\Admin\\AppData\\Local\\Programs\\Python\\Python310-32\\lib\\asyncio\\locks.py',
   'PYMODULE'),
  ('asyncio.base_tasks',
   'C:\\Users\\Admin\\AppData\\Local\\Programs\\Python\\Python310-32\\lib\\asyncio\\base_tasks.py',
   'PYMODULE'),
  ('asyncio.mixins',
   'C:\\Users\\Admin\\AppData\\Local\\Programs\\Python\\Python310-32\\lib\\asyncio\\mixins.py',
   'PYMODULE'),
  ('asyncio.sslproto',
   'C:\\Users\\Admin\\AppData\\Local\\Programs\\Python\\Python310-32\\lib\\asyncio\\sslproto.py',
   'PYMODULE'),
  ('asyncio.transports',
   'C:\\Users\\Admin\\AppData\\Local\\Programs\\Python\\Python310-32\\lib\\asyncio\\transports.py',
   'PYMODULE'),
  ('asyncio.protocols',
   'C:\\Users\\Admin\\AppData\\Local\\Programs\\Python\\Python310-32\\lib\\asyncio\\protocols.py',
   'PYMODULE'),
  ('asyncio.futures',
   'C:\\Users\\Admin\\AppData\\Local\\Programs\\Python\\Python310-32\\lib\\asyncio\\futures.py',
   'PYMODULE'),
  ('asyncio.exceptions',
   'C:\\Users\\Admin\\AppData\\Local\\Programs\\Python\\Python310-32\\lib\\asyncio\\exceptions.py',
   'PYMODULE'),
  ('asyncio.coroutines',
   'C:\\Users\\Admin\\AppData\\Local\\Programs\\Python\\Python310-32\\lib\\asyncio\\coroutines.py',
   'PYMODULE'),
  ('asyncio.base_futures',
   'C:\\Users\\Admin\\AppData\\Local\\Programs\\Python\\Python310-32\\lib\\asyncio\\base_futures.py',
   'PYMODULE'),
  ('asyncio.format_helpers',
   'C:\\Users\\Admin\\AppData\\Local\\Programs\\Python\\Python310-32\\lib\\asyncio\\format_helpers.py',
   'PYMODULE'),
  ('asyncio.constants',
   'C:\\Users\\Admin\\AppData\\Local\\Programs\\Python\\Python310-32\\lib\\asyncio\\constants.py',
   'PYMODULE'),
  ('unittest.signals',
   'C:\\Users\\Admin\\AppData\\Local\\Programs\\Python\\Python310-32\\lib\\unittest\\signals.py',
   'PYMODULE'),
  ('unittest.main',
   'C:\\Users\\Admin\\AppData\\Local\\Programs\\Python\\Python310-32\\lib\\unittest\\main.py',
   'PYMODULE'),
  ('unittest.runner',
   'C:\\Users\\Admin\\AppData\\Local\\Programs\\Python\\Python310-32\\lib\\unittest\\runner.py',
   'PYMODULE'),
  ('unittest.loader',
   'C:\\Users\\Admin\\AppData\\Local\\Programs\\Python\\Python310-32\\lib\\unittest\\loader.py',
   'PYMODULE'),
  ('unittest.suite',
   'C:\\Users\\Admin\\AppData\\Local\\Programs\\Python\\Python310-32\\lib\\unittest\\suite.py',
   'PYMODULE'),
  ('unittest.case',
   'C:\\Users\\Admin\\AppData\\Local\\Programs\\Python\\Python310-32\\lib\\unittest\\case.py',
   'PYMODULE'),
  ('unittest._log',
   'C:\\Users\\Admin\\AppData\\Local\\Programs\\Python\\Python310-32\\lib\\unittest\\_log.py',
   'PYMODULE'),
  ('unittest.result',
   'C:\\Users\\Admin\\AppData\\Local\\Programs\\Python\\Python310-32\\lib\\unittest\\result.py',
   'PYMODULE'),
  ('unittest.util',
   'C:\\Users\\Admin\\AppData\\Local\\Programs\\Python\\Python310-32\\lib\\unittest\\util.py',
   'PYMODULE'),
  ('pdb',
   'C:\\Users\\Admin\\AppData\\Local\\Programs\\Python\\Python310-32\\lib\\pdb.py',
   'PYMODULE'),
  ('pydoc',
   'C:\\Users\\Admin\\AppData\\Local\\Programs\\Python\\Python310-32\\lib\\pydoc.py',
   'PYMODULE'),
  ('webbrowser',
   'C:\\Users\\Admin\\AppData\\Local\\Programs\\Python\\Python310-32\\lib\\webbrowser.py',
   'PYMODULE'),
  ('http.server',
   'C:\\Users\\Admin\\AppData\\Local\\Programs\\Python\\Python310-32\\lib\\http\\server.py',
   'PYMODULE'),
  ('socketserver',
   'C:\\Users\\Admin\\AppData\\Local\\Programs\\Python\\Python310-32\\lib\\socketserver.py',
   'PYMODULE'),
  ('html',
   'C:\\Users\\Admin\\AppData\\Local\\Programs\\Python\\Python310-32\\lib\\html\\__init__.py',
   'PYMODULE'),
  ('html.entities',
   'C:\\Users\\Admin\\AppData\\Local\\Programs\\Python\\Python310-32\\lib\\html\\entities.py',
   'PYMODULE'),
  ('pydoc_data.topics',
   'C:\\Users\\Admin\\AppData\\Local\\Programs\\Python\\Python310-32\\lib\\pydoc_data\\topics.py',
   'PYMODULE'),
  ('pydoc_data',
   'C:\\Users\\Admin\\AppData\\Local\\Programs\\Python\\Python310-32\\lib\\pydoc_data\\__init__.py',
   'PYMODULE'),
  ('tty',
   'C:\\Users\\Admin\\AppData\\Local\\Programs\\Python\\Python310-32\\lib\\tty.py',
   'PYMODULE'),
  ('sysconfig',
   'C:\\Users\\Admin\\AppData\\Local\\Programs\\Python\\Python310-32\\lib\\sysconfig.py',
   'PYMODULE'),
  ('_aix_support',
   'C:\\Users\\Admin\\AppData\\Local\\Programs\\Python\\Python310-32\\lib\\_aix_support.py',
   'PYMODULE'),
  ('_bootsubprocess',
   'C:\\Users\\Admin\\AppData\\Local\\Programs\\Python\\Python310-32\\lib\\_bootsubprocess.py',
   'PYMODULE'),
  ('_osx_support',
   'C:\\Users\\Admin\\AppData\\Local\\Programs\\Python\\Python310-32\\lib\\_osx_support.py',
   'PYMODULE'),
  ('platform',
   'C:\\Users\\Admin\\AppData\\Local\\Programs\\Python\\Python310-32\\lib\\platform.py',
   'PYMODULE'),
  ('plistlib',
   'C:\\Users\\Admin\\AppData\\Local\\Programs\\Python\\Python310-32\\lib\\plistlib.py',
   'PYMODULE'),
  ('glob',
   'C:\\Users\\Admin\\AppData\\Local\\Programs\\Python\\Python310-32\\lib\\glob.py',
   'PYMODULE'),
  ('code',
   'C:\\Users\\Admin\\AppData\\Local\\Programs\\Python\\Python310-32\\lib\\code.py',
   'PYMODULE'),
  ('codeop',
   'C:\\Users\\Admin\\AppData\\Local\\Programs\\Python\\Python310-32\\lib\\codeop.py',
   'PYMODULE'),
  ('bdb',
   'C:\\Users\\Admin\\AppData\\Local\\Programs\\Python\\Python310-32\\lib\\bdb.py',
   'PYMODULE'),
  ('cmd',
   'C:\\Users\\Admin\\AppData\\Local\\Programs\\Python\\Python310-32\\lib\\cmd.py',
   'PYMODULE'),
  ('difflib',
   'C:\\Users\\Admin\\AppData\\Local\\Programs\\Python\\Python310-32\\lib\\difflib.py',
   'PYMODULE'),
  ('__future__',
   'C:\\Users\\Admin\\AppData\\Local\\Programs\\Python\\Python310-32\\lib\\__future__.py',
   'PYMODULE'),
  ('_compat_pickle',
   'C:\\Users\\Admin\\AppData\\Local\\Programs\\Python\\Python310-32\\lib\\_compat_pickle.py',
   'PYMODULE'),
  ('string',
   'C:\\Users\\Admin\\AppData\\Local\\Programs\\Python\\Python310-32\\lib\\string.py',
   'PYMODULE'),
  ('bisect',
   'C:\\Users\\Admin\\AppData\\Local\\Programs\\Python\\Python310-32\\lib\\bisect.py',
   'PYMODULE'),
  ('importlib.abc',
   'C:\\Users\\Admin\\AppData\\Local\\Programs\\Python\\Python310-32\\lib\\importlib\\abc.py',
   'PYMODULE'),
  ('importlib._abc',
   'C:\\Users\\Admin\\AppData\\Local\\Programs\\Python\\Python310-32\\lib\\importlib\\_abc.py',
   'PYMODULE'),
  ('importlib._bootstrap',
   'C:\\Users\\Admin\\AppData\\Local\\Programs\\Python\\Python310-32\\lib\\importlib\\_bootstrap.py',
   'PYMODULE'),
  ('importlib._bootstrap_external',
   'C:\\Users\\Admin\\AppData\\Local\\Programs\\Python\\Python310-32\\lib\\importlib\\_bootstrap_external.py',
   'PYMODULE'),
  ('importlib.metadata',
   'C:\\Users\\Admin\\AppData\\Local\\Programs\\Python\\Python310-32\\lib\\importlib\\metadata\\__init__.py',
   'PYMODULE'),
  ('importlib.metadata._itertools',
   'C:\\Users\\Admin\\AppData\\Local\\Programs\\Python\\Python310-32\\lib\\importlib\\metadata\\_itertools.py',
   'PYMODULE'),
  ('importlib.metadata._functools',
   'C:\\Users\\Admin\\AppData\\Local\\Programs\\Python\\Python310-32\\lib\\importlib\\metadata\\_functools.py',
   'PYMODULE'),
  ('importlib.metadata._collections',
   'C:\\Users\\Admin\\AppData\\Local\\Programs\\Python\\Python310-32\\lib\\importlib\\metadata\\_collections.py',
   'PYMODULE'),
  ('importlib.metadata._meta',
   'C:\\Users\\Admin\\AppData\\Local\\Programs\\Python\\Python310-32\\lib\\importlib\\metadata\\_meta.py',
   'PYMODULE'),
  ('importlib.metadata._adapters',
   'C:\\Users\\Admin\\AppData\\Local\\Programs\\Python\\Python310-32\\lib\\importlib\\metadata\\_adapters.py',
   'PYMODULE'),
  ('importlib.metadata._text',
   'C:\\Users\\Admin\\AppData\\Local\\Programs\\Python\\Python310-32\\lib\\importlib\\metadata\\_text.py',
   'PYMODULE'),
  ('csv',
   'C:\\Users\\Admin\\AppData\\Local\\Programs\\Python\\Python310-32\\lib\\csv.py',
   'PYMODULE'),
  ('pathlib',
   'C:\\Users\\Admin\\AppData\\Local\\Programs\\Python\\Python310-32\\lib\\pathlib.py',
   'PYMODULE'),
  ('struct',
   'C:\\Users\\Admin\\AppData\\Local\\Programs\\Python\\Python310-32\\lib\\struct.py',
   'PYMODULE'),
  ('importlib.util',
   'C:\\Users\\Admin\\AppData\\Local\\Programs\\Python\\Python310-32\\lib\\importlib\\util.py',
   'PYMODULE'),
  ('tarfile',
   'C:\\Users\\Admin\\AppData\\Local\\Programs\\Python\\Python310-32\\lib\\tarfile.py',
   'PYMODULE'),
  ('lzma',
   'C:\\Users\\Admin\\AppData\\Local\\Programs\\Python\\Python310-32\\lib\\lzma.py',
   'PYMODULE'),
  ('bz2',
   'C:\\Users\\Admin\\AppData\\Local\\Programs\\Python\\Python310-32\\lib\\bz2.py',
   'PYMODULE'),
  ('fnmatch',
   'C:\\Users\\Admin\\AppData\\Local\\Programs\\Python\\Python310-32\\lib\\fnmatch.py',
   'PYMODULE'),
  ('copy',
   'C:\\Users\\Admin\\AppData\\Local\\Programs\\Python\\Python310-32\\lib\\copy.py',
   'PYMODULE'),
  ('gettext',
   'C:\\Users\\Admin\\AppData\\Local\\Programs\\Python\\Python310-32\\lib\\gettext.py',
   'PYMODULE'),
  ('ntpath',
   'C:\\Users\\Admin\\AppData\\Local\\Programs\\Python\\Python310-32\\lib\\ntpath.py',
   'PYMODULE'),
  ('genericpath',
   'C:\\Users\\Admin\\AppData\\Local\\Programs\\Python\\Python310-32\\lib\\genericpath.py',
   'PYMODULE'),
  ('posixpath',
   'C:\\Users\\Admin\\AppData\\Local\\Programs\\Python\\Python310-32\\lib\\posixpath.py',
   'PYMODULE'),
  ('stat',
   'C:\\Users\\Admin\\AppData\\Local\\Programs\\Python\\Python310-32\\lib\\stat.py',
   'PYMODULE'),
  ('_py_abc',
   'C:\\Users\\Admin\\AppData\\Local\\Programs\\Python\\Python310-32\\lib\\_py_abc.py',
   'PYMODULE'),
  ('stringprep',
   'C:\\Users\\Admin\\AppData\\Local\\Programs\\Python\\Python310-32\\lib\\stringprep.py',
   'PYMODULE'),
  ('tracemalloc',
   'C:\\Users\\Admin\\AppData\\Local\\Programs\\Python\\Python310-32\\lib\\tracemalloc.py',
   'PYMODULE'),
  ('GUI.LoginController',
   'C:\\code\\python\\ur4\\GUI\\LoginController.py',
   'PYMODULE'),
  ('GUI', '-', 'PYMODULE'),
  ('GUI.Screens.LoginScreen',
   'C:\\code\\python\\ur4\\GUI\\Screens\\LoginScreen.py',
   'PYMODULE'),
  ('GUI.Screens', '-', 'PYMODULE'),
  ('Services.RFID.RFIDCommander',
   'C:\\code\\python\\ur4\\Services\\RFID\\RFIDCommander.py',
   'PYMODULE'),
  ('Services.RFID', '-', 'PYMODULE'),
  ('Services', '-', 'PYMODULE'),
  ('Services.RFID.Exceptions.WrongArgumentTypesException',
   'C:\\code\\python\\ur4\\Services\\RFID\\Exceptions\\WrongArgumentTypesException.py',
   'PYMODULE'),
  ('Services.RFID.Exceptions', '-', 'PYMODULE'),
  ('Services.RFID.Exceptions.CommandNotExistException',
   'C:\\code\\python\\ur4\\Services\\RFID\\Exceptions\\CommandNotExistException.py',
   'PYMODULE'),
  ('Services.RFID.Exceptions.CannotConnectedWithRfidException',
   'C:\\code\\python\\ur4\\Services\\RFID\\Exceptions\\CannotConnectedWithRfidException.py',
   'PYMODULE'),
  ('Services.RFID.Commands.UHFSetRegionCommand',
   'C:\\code\\python\\ur4\\Services\\RFID\\Commands\\UHFSetRegionCommand.py',
   'PYMODULE'),
  ('Services.RFID.Commands', '-', 'PYMODULE'),
  ('Services.RFID.Exceptions.IncorrectArgumentOfCommandException',
   'C:\\code\\python\\ur4\\Services\\RFID\\Exceptions\\IncorrectArgumentOfCommandException.py',
   'PYMODULE'),
  ('Services.RFID.Data.Regions',
   'C:\\code\\python\\ur4\\Services\\RFID\\Data\\Regions.py',
   'PYMODULE'),
  ('Services.RFID.Data', '-', 'PYMODULE'),
  ('Services.RFID.Commands.CommandHandler',
   'C:\\code\\python\\ur4\\Services\\RFID\\Commands\\CommandHandler.py',
   'PYMODULE'),
  ('Services.RFID.Exceptions.WrongTypeException',
   'C:\\code\\python\\ur4\\Services\\RFID\\Exceptions\\WrongTypeException.py',
   'PYMODULE'),
  ('Services.RFID.Exceptions.OSErrorException',
   'C:\\code\\python\\ur4\\Services\\RFID\\Exceptions\\OSErrorException.py',
   'PYMODULE'),
  ('Services.RFID.Exceptions.MissingCommandNameException',
   'C:\\code\\python\\ur4\\Services\\RFID\\Exceptions\\MissingCommandNameException.py',
   'PYMODULE'),
  ('Services.RFID.Commands.UHFSetPowerCommand',
   'C:\\code\\python\\ur4\\Services\\RFID\\Commands\\UHFSetPowerCommand.py',
   'PYMODULE'),
  ('Services.RFID.Commands.UHFSetANTWorkTimeCommand',
   'C:\\code\\python\\ur4\\Services\\RFID\\Commands\\UHFSetANTWorkTimeCommand.py',
   'PYMODULE'),
  ('Services.RFID.Commands.UHFInventoryStopCommand',
   'C:\\code\\python\\ur4\\Services\\RFID\\Commands\\UHFInventoryStopCommand.py',
   'PYMODULE'),
  ('Services.RFID.Commands.UHFInventoryStartCommand',
   'C:\\code\\python\\ur4\\Services\\RFID\\Commands\\UHFInventoryStartCommand.py',
   'PYMODULE'),
  ('Services.RFID.Commands.UHFGetTemperatureProtectCommand',
   'C:\\code\\python\\ur4\\Services\\RFID\\Commands\\UHFGetTemperatureProtectCommand.py',
   'PYMODULE'),
  ('Services.RFID.Commands.UHFGetTemperatureCommand',
   'C:\\code\\python\\ur4\\Services\\RFID\\Commands\\UHFGetTemperatureCommand.py',
   'PYMODULE'),
  ('Services.RFID.Commands.UHFGetTagWhenInventoryCommand',
   'C:\\code\\python\\ur4\\Services\\RFID\\Commands\\UHFGetTagWhenInventoryCommand.py',
   'PYMODULE'),
  ('Services.Main.ParseUhfData',
   'C:\\code\\python\\ur4\\Services\\Main\\ParseUhfData.py',
   'PYMODULE'),
  ('Services.Main', '-', 'PYMODULE'),
  ('Services.RFID.Commands.UHFGetSoftwareCommand',
   'C:\\code\\python\\ur4\\Services\\RFID\\Commands\\UHFGetSoftwareCommand.py',
   'PYMODULE'),
  ('Services.RFID.Commands.UHFGetRegionCommand',
   'C:\\code\\python\\ur4\\Services\\RFID\\Commands\\UHFGetRegionCommand.py',
   'PYMODULE'),
  ('Services.RFID.Commands.UHFGetPowerCommand',
   'C:\\code\\python\\ur4\\Services\\RFID\\Commands\\UHFGetPowerCommand.py',
   'PYMODULE'),
  ('Services.RFID.Commands.UHFGetJumpFrequencyCommand',
   'C:\\code\\python\\ur4\\Services\\RFID\\Commands\\UHFGetJumpFrequencyCommand.py',
   'PYMODULE'),
  ('Services.RFID.Commands.UHFGetDeviceIDCommand',
   'C:\\code\\python\\ur4\\Services\\RFID\\Commands\\UHFGetDeviceIDCommand.py',
   'PYMODULE'),
  ('Services.RFID.Commands.UHFGetANTWorkTimeCommand',
   'C:\\code\\python\\ur4\\Services\\RFID\\Commands\\UHFGetANTWorkTimeCommand.py',
   'PYMODULE'),
  ('Services.RFID.Commands.TCPDisconnectCommand',
   'C:\\code\\python\\ur4\\Services\\RFID\\Commands\\TCPDisconnectCommand.py',
   'PYMODULE'),
  ('Services.RFID.Commands.TCPConnectCommand',
   'C:\\code\\python\\ur4\\Services\\RFID\\Commands\\TCPConnectCommand.py',
   'PYMODULE'),
  ('Services.RFID.Commands.GetHardwareVersionCommand',
   'C:\\code\\python\\ur4\\Services\\RFID\\Commands\\GetHardwareVersionCommand.py',
   'PYMODULE'),
  ('App', 'C:\\code\\python\\ur4\\App.py', 'PYMODULE'),
  ('Services.Main.Logger',
   'C:\\code\\python\\ur4\\Services\\Main\\Logger.py',
   'PYMODULE'),
  ('Services.Main.Utils',
   'C:\\code\\python\\ur4\\Services\\Main\\Utils.py',
   'PYMODULE'),
  ('GUI.Elements.InputTextElement',
   'C:\\code\\python\\ur4\\GUI\\Elements\\InputTextElement.py',
   'PYMODULE'),
  ('GUI.Elements', '-', 'PYMODULE'),
  ('GUI.Elements.InputPortElement',
   'C:\\code\\python\\ur4\\GUI\\Elements\\InputPortElement.py',
   'PYMODULE'),
  ('GUI.Elements.InputIPElement',
   'C:\\code\\python\\ur4\\GUI\\Elements\\InputIPElement.py',
   'PYMODULE'),
  ('GUI.Elements.FormElement',
   'C:\\code\\python\\ur4\\GUI\\Elements\\FormElement.py',
   'PYMODULE'),
  ('GUI.Elements.ButtonElement',
   'C:\\code\\python\\ur4\\GUI\\Elements\\ButtonElement.py',
   'PYMODULE'),
  ('ipaddress',
   'C:\\Users\\Admin\\AppData\\Local\\Programs\\Python\\Python310-32\\lib\\ipaddress.py',
   'PYMODULE'),
  ('GUI.MainController',
   'C:\\code\\python\\ur4\\GUI\\MainController.py',
   'PYMODULE'),
  ('Services.ServerRequest.ServerRequestService',
   'C:\\code\\python\\ur4\\Services\\ServerRequest\\ServerRequestService.py',
   'PYMODULE'),
  ('Services.ServerRequest', '-', 'PYMODULE'),
  ('Services.ServerRequest.SendRequestThread',
   'C:\\code\\python\\ur4\\Services\\ServerRequest\\SendRequestThread.py',
   'PYMODULE'),
  ('DB.Model.ConfigModel',
   'C:\\code\\python\\ur4\\DB\\Model\\ConfigModel.py',
   'PYMODULE'),
  ('playhouse.shortcuts',
   'C:\\Users\\Admin\\AppData\\Local\\Programs\\Python\\Python310-32\\lib\\site-packages\\playhouse\\shortcuts.py',
   'PYMODULE'),
  ('playhouse',
   'C:\\Users\\Admin\\AppData\\Local\\Programs\\Python\\Python310-32\\lib\\site-packages\\playhouse\\__init__.py',
   'PYMODULE'),
  ('DB.BaseModel', 'C:\\code\\python\\ur4\\DB\\BaseModel.py', 'PYMODULE'),
  ('DB', '-', 'PYMODULE'),
  ('peewee',
   'C:\\Users\\Admin\\AppData\\Local\\Programs\\Python\\Python310-32\\lib\\site-packages\\peewee.py',
   'PYMODULE'),
  ('sqlite3',
   'C:\\Users\\Admin\\AppData\\Local\\Programs\\Python\\Python310-32\\lib\\sqlite3\\__init__.py',
   'PYMODULE'),
  ('sqlite3.dump',
   'C:\\Users\\Admin\\AppData\\Local\\Programs\\Python\\Python310-32\\lib\\sqlite3\\dump.py',
   'PYMODULE'),
  ('sqlite3.dbapi2',
   'C:\\Users\\Admin\\AppData\\Local\\Programs\\Python\\Python310-32\\lib\\sqlite3\\dbapi2.py',
   'PYMODULE'),
  ('uuid',
   'C:\\Users\\Admin\\AppData\\Local\\Programs\\Python\\Python310-32\\lib\\uuid.py',
   'PYMODULE'),
  ('DB.Model', '-', 'PYMODULE'),
  ('requests',
   'C:\\Users\\Admin\\AppData\\Local\\Programs\\Python\\Python310-32\\lib\\site-packages\\requests\\__init__.py',
   'PYMODULE'),
  ('requests.status_codes',
   'C:\\Users\\Admin\\AppData\\Local\\Programs\\Python\\Python310-32\\lib\\site-packages\\requests\\status_codes.py',
   'PYMODULE'),
  ('requests.structures',
   'C:\\Users\\Admin\\AppData\\Local\\Programs\\Python\\Python310-32\\lib\\site-packages\\requests\\structures.py',
   'PYMODULE'),
  ('requests.compat',
   'C:\\Users\\Admin\\AppData\\Local\\Programs\\Python\\Python310-32\\lib\\site-packages\\requests\\compat.py',
   'PYMODULE'),
  ('http.cookies',
   'C:\\Users\\Admin\\AppData\\Local\\Programs\\Python\\Python310-32\\lib\\http\\cookies.py',
   'PYMODULE'),
  ('json',
   'C:\\Users\\Admin\\AppData\\Local\\Programs\\Python\\Python310-32\\lib\\json\\__init__.py',
   'PYMODULE'),
  ('json.encoder',
   'C:\\Users\\Admin\\AppData\\Local\\Programs\\Python\\Python310-32\\lib\\json\\encoder.py',
   'PYMODULE'),
  ('json.decoder',
   'C:\\Users\\Admin\\AppData\\Local\\Programs\\Python\\Python310-32\\lib\\json\\decoder.py',
   'PYMODULE'),
  ('json.scanner',
   'C:\\Users\\Admin\\AppData\\Local\\Programs\\Python\\Python310-32\\lib\\json\\scanner.py',
   'PYMODULE'),
  ('requests.api',
   'C:\\Users\\Admin\\AppData\\Local\\Programs\\Python\\Python310-32\\lib\\site-packages\\requests\\api.py',
   'PYMODULE'),
  ('requests.sessions',
   'C:\\Users\\Admin\\AppData\\Local\\Programs\\Python\\Python310-32\\lib\\site-packages\\requests\\sessions.py',
   'PYMODULE'),
  ('requests.adapters',
   'C:\\Users\\Admin\\AppData\\Local\\Programs\\Python\\Python310-32\\lib\\site-packages\\requests\\adapters.py',
   'PYMODULE'),
  ('urllib3.contrib.socks',
   'C:\\Users\\Admin\\AppData\\Local\\Programs\\Python\\Python310-32\\lib\\site-packages\\urllib3\\contrib\\socks.py',
   'PYMODULE'),
  ('urllib3.util.url',
   'C:\\Users\\Admin\\AppData\\Local\\Programs\\Python\\Python310-32\\lib\\site-packages\\urllib3\\util\\url.py',
   'PYMODULE'),
  ('idna',
   'C:\\Users\\Admin\\AppData\\Local\\Programs\\Python\\Python310-32\\lib\\site-packages\\idna\\__init__.py',
   'PYMODULE'),
  ('idna.intranges',
   'C:\\Users\\Admin\\AppData\\Local\\Programs\\Python\\Python310-32\\lib\\site-packages\\idna\\intranges.py',
   'PYMODULE'),
  ('idna.core',
   'C:\\Users\\Admin\\AppData\\Local\\Programs\\Python\\Python310-32\\lib\\site-packages\\idna\\core.py',
   'PYMODULE'),
  ('idna.uts46data',
   'C:\\Users\\Admin\\AppData\\Local\\Programs\\Python\\Python310-32\\lib\\site-packages\\idna\\uts46data.py',
   'PYMODULE'),
  ('idna.idnadata',
   'C:\\Users\\Admin\\AppData\\Local\\Programs\\Python\\Python310-32\\lib\\site-packages\\idna\\idnadata.py',
   'PYMODULE'),
  ('idna.package_data',
   'C:\\Users\\Admin\\AppData\\Local\\Programs\\Python\\Python310-32\\lib\\site-packages\\idna\\package_data.py',
   'PYMODULE'),
  ('urllib3.packages.six',
   'C:\\Users\\Admin\\AppData\\Local\\Programs\\Python\\Python310-32\\lib\\site-packages\\urllib3\\packages\\six.py',
   'PYMODULE'),
  ('urllib3.packages',
   'C:\\Users\\Admin\\AppData\\Local\\Programs\\Python\\Python310-32\\lib\\site-packages\\urllib3\\packages\\__init__.py',
   'PYMODULE'),
  ('urllib3.connectionpool',
   'C:\\Users\\Admin\\AppData\\Local\\Programs\\Python\\Python310-32\\lib\\site-packages\\urllib3\\connectionpool.py',
   'PYMODULE'),
  ('urllib3.util.timeout',
   'C:\\Users\\Admin\\AppData\\Local\\Programs\\Python\\Python310-32\\lib\\site-packages\\urllib3\\util\\timeout.py',
   'PYMODULE'),
  ('urllib3.util.ssl_match_hostname',
   'C:\\Users\\Admin\\AppData\\Local\\Programs\\Python\\Python310-32\\lib\\site-packages\\urllib3\\util\\ssl_match_hostname.py',
   'PYMODULE'),
  ('urllib3.util.response',
   'C:\\Users\\Admin\\AppData\\Local\\Programs\\Python\\Python310-32\\lib\\site-packages\\urllib3\\util\\response.py',
   'PYMODULE'),
  ('urllib3.util.request',
   'C:\\Users\\Admin\\AppData\\Local\\Programs\\Python\\Python310-32\\lib\\site-packages\\urllib3\\util\\request.py',
   'PYMODULE'),
  ('urllib3.util.queue',
   'C:\\Users\\Admin\\AppData\\Local\\Programs\\Python\\Python310-32\\lib\\site-packages\\urllib3\\util\\queue.py',
   'PYMODULE'),
  ('urllib3.util.proxy',
   'C:\\Users\\Admin\\AppData\\Local\\Programs\\Python\\Python310-32\\lib\\site-packages\\urllib3\\util\\proxy.py',
   'PYMODULE'),
  ('urllib3.util.ssl_',
   'C:\\Users\\Admin\\AppData\\Local\\Programs\\Python\\Python310-32\\lib\\site-packages\\urllib3\\util\\ssl_.py',
   'PYMODULE'),
  ('urllib3.util.ssltransport',
   'C:\\Users\\Admin\\AppData\\Local\\Programs\\Python\\Python310-32\\lib\\site-packages\\urllib3\\util\\ssltransport.py',
   'PYMODULE'),
  ('urllib3.util.connection',
   'C:\\Users\\Admin\\AppData\\Local\\Programs\\Python\\Python310-32\\lib\\site-packages\\urllib3\\util\\connection.py',
   'PYMODULE'),
  ('urllib3.util.wait',
   'C:\\Users\\Admin\\AppData\\Local\\Programs\\Python\\Python310-32\\lib\\site-packages\\urllib3\\util\\wait.py',
   'PYMODULE'),
  ('urllib3.contrib._appengine_environ',
   'C:\\Users\\Admin\\AppData\\Local\\Programs\\Python\\Python310-32\\lib\\site-packages\\urllib3\\contrib\\_appengine_environ.py',
   'PYMODULE'),
  ('urllib3.request',
   'C:\\Users\\Admin\\AppData\\Local\\Programs\\Python\\Python310-32\\lib\\site-packages\\urllib3\\request.py',
   'PYMODULE'),
  ('urllib3.filepost',
   'C:\\Users\\Admin\\AppData\\Local\\Programs\\Python\\Python310-32\\lib\\site-packages\\urllib3\\filepost.py',
   'PYMODULE'),
  ('urllib3.fields',
   'C:\\Users\\Admin\\AppData\\Local\\Programs\\Python\\Python310-32\\lib\\site-packages\\urllib3\\fields.py',
   'PYMODULE'),
  ('urllib3.connection',
   'C:\\Users\\Admin\\AppData\\Local\\Programs\\Python\\Python310-32\\lib\\site-packages\\urllib3\\connection.py',
   'PYMODULE'),
  ('urllib3._version',
   'C:\\Users\\Admin\\AppData\\Local\\Programs\\Python\\Python310-32\\lib\\site-packages\\urllib3\\_version.py',
   'PYMODULE'),
  ('urllib3._collections',
   'C:\\Users\\Admin\\AppData\\Local\\Programs\\Python\\Python310-32\\lib\\site-packages\\urllib3\\_collections.py',
   'PYMODULE'),
  ('urllib3.util.retry',
   'C:\\Users\\Admin\\AppData\\Local\\Programs\\Python\\Python310-32\\lib\\site-packages\\urllib3\\util\\retry.py',
   'PYMODULE'),
  ('urllib3.util',
   'C:\\Users\\Admin\\AppData\\Local\\Programs\\Python\\Python310-32\\lib\\site-packages\\urllib3\\util\\__init__.py',
   'PYMODULE'),
  ('urllib3.response',
   'C:\\Users\\Admin\\AppData\\Local\\Programs\\Python\\Python310-32\\lib\\site-packages\\urllib3\\response.py',
   'PYMODULE'),
  ('urllib3.poolmanager',
   'C:\\Users\\Admin\\AppData\\Local\\Programs\\Python\\Python310-32\\lib\\site-packages\\urllib3\\poolmanager.py',
   'PYMODULE'),
  ('requests._internal_utils',
   'C:\\Users\\Admin\\AppData\\Local\\Programs\\Python\\Python310-32\\lib\\site-packages\\requests\\_internal_utils.py',
   'PYMODULE'),
  ('requests.hooks',
   'C:\\Users\\Admin\\AppData\\Local\\Programs\\Python\\Python310-32\\lib\\site-packages\\requests\\hooks.py',
   'PYMODULE'),
  ('requests.cookies',
   'C:\\Users\\Admin\\AppData\\Local\\Programs\\Python\\Python310-32\\lib\\site-packages\\requests\\cookies.py',
   'PYMODULE'),
  ('requests.auth',
   'C:\\Users\\Admin\\AppData\\Local\\Programs\\Python\\Python310-32\\lib\\site-packages\\requests\\auth.py',
   'PYMODULE'),
  ('requests.models',
   'C:\\Users\\Admin\\AppData\\Local\\Programs\\Python\\Python310-32\\lib\\site-packages\\requests\\models.py',
   'PYMODULE'),
  ('requests.packages',
   'C:\\Users\\Admin\\AppData\\Local\\Programs\\Python\\Python310-32\\lib\\site-packages\\requests\\packages.py',
   'PYMODULE'),
  ('requests.utils',
   'C:\\Users\\Admin\\AppData\\Local\\Programs\\Python\\Python310-32\\lib\\site-packages\\requests\\utils.py',
   'PYMODULE'),
  ('requests.certs',
   'C:\\Users\\Admin\\AppData\\Local\\Programs\\Python\\Python310-32\\lib\\site-packages\\requests\\certs.py',
   'PYMODULE'),
  ('certifi',
   'C:\\Users\\Admin\\AppData\\Local\\Programs\\Python\\Python310-32\\lib\\site-packages\\certifi\\__init__.py',
   'PYMODULE'),
  ('certifi.core',
   'C:\\Users\\Admin\\AppData\\Local\\Programs\\Python\\Python310-32\\lib\\site-packages\\certifi\\core.py',
   'PYMODULE'),
  ('importlib.resources',
   'C:\\Users\\Admin\\AppData\\Local\\Programs\\Python\\Python310-32\\lib\\importlib\\resources.py',
   'PYMODULE'),
  ('requests.__version__',
   'C:\\Users\\Admin\\AppData\\Local\\Programs\\Python\\Python310-32\\lib\\site-packages\\requests\\__version__.py',
   'PYMODULE'),
  ('urllib3.exceptions',
   'C:\\Users\\Admin\\AppData\\Local\\Programs\\Python\\Python310-32\\lib\\site-packages\\urllib3\\exceptions.py',
   'PYMODULE'),
  ('urllib3.contrib.pyopenssl',
   'C:\\Users\\Admin\\AppData\\Local\\Programs\\Python\\Python310-32\\lib\\site-packages\\urllib3\\contrib\\pyopenssl.py',
   'PYMODULE'),
  ('urllib3.packages.backports.makefile',
   'C:\\Users\\Admin\\AppData\\Local\\Programs\\Python\\Python310-32\\lib\\site-packages\\urllib3\\packages\\backports\\makefile.py',
   'PYMODULE'),
  ('urllib3.packages.backports',
   'C:\\Users\\Admin\\AppData\\Local\\Programs\\Python\\Python310-32\\lib\\site-packages\\urllib3\\packages\\backports\\__init__.py',
   'PYMODULE'),
  ('urllib3.contrib',
   'C:\\Users\\Admin\\AppData\\Local\\Programs\\Python\\Python310-32\\lib\\site-packages\\urllib3\\contrib\\__init__.py',
   'PYMODULE'),
  ('charset_normalizer',
   'C:\\Users\\Admin\\AppData\\Local\\Programs\\Python\\Python310-32\\lib\\site-packages\\charset_normalizer\\__init__.py',
   'PYMODULE'),
  ('charset_normalizer.version',
   'C:\\Users\\Admin\\AppData\\Local\\Programs\\Python\\Python310-32\\lib\\site-packages\\charset_normalizer\\version.py',
   'PYMODULE'),
  ('charset_normalizer.utils',
   'C:\\Users\\Admin\\AppData\\Local\\Programs\\Python\\Python310-32\\lib\\site-packages\\charset_normalizer\\utils.py',
   'PYMODULE'),
  ('charset_normalizer.constant',
   'C:\\Users\\Admin\\AppData\\Local\\Programs\\Python\\Python310-32\\lib\\site-packages\\charset_normalizer\\constant.py',
   'PYMODULE'),
  ('charset_normalizer.assets',
   'C:\\Users\\Admin\\AppData\\Local\\Programs\\Python\\Python310-32\\lib\\site-packages\\charset_normalizer\\assets\\__init__.py',
   'PYMODULE'),
  ('charset_normalizer.models',
   'C:\\Users\\Admin\\AppData\\Local\\Programs\\Python\\Python310-32\\lib\\site-packages\\charset_normalizer\\models.py',
   'PYMODULE'),
  ('charset_normalizer.cd',
   'C:\\Users\\Admin\\AppData\\Local\\Programs\\Python\\Python310-32\\lib\\site-packages\\charset_normalizer\\cd.py',
   'PYMODULE'),
  ('charset_normalizer.md',
   'C:\\Users\\Admin\\AppData\\Local\\Programs\\Python\\Python310-32\\lib\\site-packages\\charset_normalizer\\md.py',
   'PYMODULE'),
  ('charset_normalizer.legacy',
   'C:\\Users\\Admin\\AppData\\Local\\Programs\\Python\\Python310-32\\lib\\site-packages\\charset_normalizer\\legacy.py',
   'PYMODULE'),
  ('charset_normalizer.api',
   'C:\\Users\\Admin\\AppData\\Local\\Programs\\Python\\Python310-32\\lib\\site-packages\\charset_normalizer\\api.py',
   'PYMODULE'),
  ('requests.exceptions',
   'C:\\Users\\Admin\\AppData\\Local\\Programs\\Python\\Python310-32\\lib\\site-packages\\requests\\exceptions.py',
   'PYMODULE'),
  ('urllib3',
   'C:\\Users\\Admin\\AppData\\Local\\Programs\\Python\\Python310-32\\lib\\site-packages\\urllib3\\__init__.py',
   'PYMODULE'),
  ('GUI.Screens.RFIDScreen.RFIDScreen',
   'C:\\code\\python\\ur4\\GUI\\Screens\\RFIDScreen\\RFIDScreen.py',
   'PYMODULE'),
  ('GUI.Screens.RFIDScreen', '-', 'PYMODULE'),
  ('Services.SaveTagToDBService',
   'C:\\code\\python\\ur4\\Services\\SaveTagToDBService.py',
   'PYMODULE'),
  ('GUI.Screens.RFIDScreen.UhfThread',
   'C:\\code\\python\\ur4\\GUI\\Screens\\RFIDScreen\\UhfThread.py',
   'PYMODULE'),
  ('GUI.Screens.RFIDScreen.UHFTable',
   'C:\\code\\python\\ur4\\GUI\\Screens\\RFIDScreen\\UHFTable.py',
   'PYMODULE'),
  ('GUI.Screens.RFIDScreen.CounterForm',
   'C:\\code\\python\\ur4\\GUI\\Screens\\RFIDScreen\\CounterForm.py',
   'PYMODULE'),
  ('GUI.Elements.ShowFieldElement',
   'C:\\code\\python\\ur4\\GUI\\Elements\\ShowFieldElement.py',
   'PYMODULE'),
  ('GUI.Elements.ShowTableElement',
   'C:\\code\\python\\ur4\\GUI\\Elements\\ShowTableElement.py',
   'PYMODULE'),
  ('GUI.Screens.MainLayout',
   'C:\\code\\python\\ur4\\GUI\\Screens\\MainLayout.py',
   'PYMODULE'),
  ('GUI.Screens.LogScreen.LogScreen',
   'C:\\code\\python\\ur4\\GUI\\Screens\\LogScreen\\LogScreen.py',
   'PYMODULE'),
  ('GUI.Screens.LogScreen', '-', 'PYMODULE'),
  ('GUI.Screens.InfoScreen.InfoScreen',
   'C:\\code\\python\\ur4\\GUI\\Screens\\InfoScreen\\InfoScreen.py',
   'PYMODULE'),
  ('GUI.Screens.InfoScreen', '-', 'PYMODULE'),
  ('GUI.Screens.ConfigScreen.ConfigScreen',
   'C:\\code\\python\\ur4\\GUI\\Screens\\ConfigScreen\\ConfigScreen.py',
   'PYMODULE'),
  ('GUI.Screens.ConfigScreen', '-', 'PYMODULE'),
  ('GUI.Screens.ConfigScreen.ServerForm',
   'C:\\code\\python\\ur4\\GUI\\Screens\\ConfigScreen\\ServerForm.py',
   'PYMODULE'),
  ('GUI.Screens.ConfigScreen.PowerForm',
   'C:\\code\\python\\ur4\\GUI\\Screens\\ConfigScreen\\PowerForm.py',
   'PYMODULE'),
  ('GUI.Elements.InputComboElement',
   'C:\\code\\python\\ur4\\GUI\\Elements\\InputComboElement.py',
   'PYMODULE'),
  ('GUI.Screens.ConfigScreen.AntFrequencyForm',
   'C:\\code\\python\\ur4\\GUI\\Screens\\ConfigScreen\\AntFrequencyForm.py',
   'PYMODULE'),
  ('GUI.Elements.InputFrequencyElement',
   'C:\\code\\python\\ur4\\GUI\\Elements\\InputFrequencyElement.py',
   'PYMODULE'),
  ('DB.DBService', 'C:\\code\\python\\ur4\\DB\\DBService.py', 'PYMODULE'),
  ('DB.Model.UhfTagModel',
   'C:\\code\\python\\ur4\\DB\\Model\\UhfTagModel.py',
   'PYMODULE'),
  ('PyQt5',
   'C:\\Users\\Admin\\AppData\\Local\\Programs\\Python\\Python310-32\\lib\\site-packages\\PyQt5\\__init__.py',
   'PYMODULE')])
